{"name":"InitialTest","id":"runner.TestInitial:InitialTest","testCaseName":"runner.TestInitial","testSteps":[{"number":1,"description":"Jorge qa get list","duration":3560,"startTime":"2022-03-24T17:59:32.337-05:00[America/Bogota]","result":"SUCCESS","precondition":false,"level":0,"children":[{"number":2,"description":"Jorge QA executes a GET on the resource /api/unknown1","duration":3464,"startTime":"2022-03-24T17:59:32.428-05:00[America/Bogota]","result":"SUCCESS","precondition":false,"level":1,"children":[{"number":3,"description":"GET https://reqres.in/api/unknown1\r","duration":1,"startTime":"2022-03-24T17:59:35.887-05:00[America/Bogota]","result":"SUCCESS","restQuery":{"method":"GET","path":"https://reqres.in/api/unknown1\r","content":"\r","contentType":"application/json","requestHeaders":"header\u003dvalue1\r\n\t\t\t\tAccept\u003d*/*\r\n\t\t\t\tContent-Type\u003dapplication/json; charset\u003dUTF-8\r","requestCookies":"\r","responseHeaders":"Date: Thu, 24 Mar 2022 22:59:35 GMT\r\nContent-Type: application/json; charset\u003dutf-8\r\nTransfer-Encoding: chunked\r\nConnection: keep-alive\r\nX-Powered-By: Express\r\nAccess-Control-Allow-Origin: *\r\nEtag: W/\"2c1-N6Rqerxquq2kgQhL51EiSg4x0R8\"\r\nVia: 1.1 vegur\r\nCache-Control: max-age\u003d14400\r\nCF-Cache-Status: HIT\r\nAge: 1652\r\nExpect-CT: max-age\u003d604800, report-uri\u003d\"https://report-uri.cloudflare.com/cdn-cgi/beacon/expect-ct\"\r\nReport-To: {\"endpoints\":[{\"url\":\"https:\\/\\/a.nel.cloudflare.com\\/report\\/v3?s\u003dLqA0BnCHJPHFuBFZJkm%2BSh5nzbNr2vFLQXVtjR2s4HYsJdAYjsVKMND4fcjE9FcekSHtSszjKR7FALE9pMhXsH%2BjoFU6EK0s%2Bbv8Z17buW0I8%2Fhr5XIdwaTxDJg%3D\"}],\"group\":\"cf-nel\",\"max_age\":604800}\r\nNEL: {\"success_fraction\":0,\"report_to\":\"cf-nel\",\"max_age\":604800}\r\nVary: Accept-Encoding\r\nServer: cloudflare\r\nCF-RAY: 6f1304a49e2c9ae0-MIA\r\nContent-Encoding: gzip\r\nalt-svc: h3\u003d\":443\"; ma\u003d86400, h3-29\u003d\":443\"; ma\u003d86400\r","responseCookies":"\r","responseBody":"{\n    \"page\": 1,\n    \"per_page\": 6,\n    \"total\": 12,\n    \"total_pages\": 2,\n    \"data\": [\n        {\n            \"id\": 1,\n            \"name\": \"cerulean\",\n            \"year\": 2000,\n            \"color\": \"#98B2D1\",\n            \"pantone_value\": \"15-4020\"\n        },\n        {\n            \"id\": 2,\n            \"name\": \"fuchsia rose\",\n            \"year\": 2001,\n            \"color\": \"#C74375\",\n            \"pantone_value\": \"17-2031\"\n        },\n        {\n            \"id\": 3,\n            \"name\": \"true red\",\n            \"year\": 2002,\n            \"color\": \"#BF1932\",\n            \"pantone_value\": \"19-1664\"\n        },\n        {\n            \"id\": 4,\n            \"name\": \"aqua sky\",\n            \"year\": 2003,\n            \"color\": \"#7BC4C4\",\n            \"pantone_value\": \"14-4811\"\n        },\n        {\n            \"id\": 5,\n            \"name\": \"tigerlily\",\n            \"year\": 2004,\n            \"color\": \"#E2583E\",\n            \"pantone_value\": \"17-1456\"\n        },\n        {\n            \"id\": 6,\n            \"name\": \"blue turquoise\",\n            \"year\": 2005,\n            \"color\": \"#53B0AE\",\n            \"pantone_value\": \"15-5217\"\n        }\n    ],\n    \"support\": {\n        \"url\": \"https://reqres.in/#support-heading\",\n        \"text\": \"To keep ReqRes free, contributions towards server costs are appreciated!\"\n    }\n}","statusCode":200},"precondition":false,"level":2}]}]},{"number":4,"description":"Then El codigo de respuesta es \u003d should be (200)","duration":43,"startTime":"2022-03-24T17:59:36.026-05:00[America/Bogota]","result":"SUCCESS","precondition":false,"level":0},{"number":5,"description":"Then Usuario no es nulo should be not null","duration":1,"startTime":"2022-03-24T17:59:36.540-05:00[America/Bogota]","result":"SUCCESS","precondition":false,"level":0},{"number":6,"description":"Then el nombre es should be \u0027cerulean\u0027","duration":0,"startTime":"2022-03-24T17:59:36.544-05:00[America/Bogota]","result":"SUCCESS","precondition":false,"level":0}],"userStory":{"id":"runner.TestInitial","storyName":"Test initial","storyClassName":"runner.TestInitial","path":"runner","type":"story"},"featureTag":{"name":"Runner/Test initial","type":"story","displayName":"Runner/Test initial"},"title":"Initial test","tags":[{"name":"Runner/Test initial","type":"story","displayName":"Runner/Test initial"}],"startTime":"2022-03-24T17:59:31.883-05:00[America/Bogota]","duration":4663,"projectKey":"","isManualTestingUpToDate":false,"manual":false,"testSource":"JUnit","actors":[{"name":"Jorge QA","can":["call an API at https://reqres.in"]}],"order":0,"result":"SUCCESS"}