{"name":"Consulta fallida","id":"lista-de-colores;consulta-fallida","testSteps":[{"number":1,"description":"Given que el actor quiere consultar la lista de colores","duration":4,"startTime":"2022-03-25T00:12:28.769-05:00[America/Bogota]","result":"SUCCESS","precondition":false,"level":0},{"number":2,"description":"When hace la peticion al servicio","duration":566,"startTime":"2022-03-25T00:12:28.774-05:00[America/Bogota]","result":"SUCCESS","precondition":false,"level":0,"children":[{"number":3,"description":"Jorge qa get list","duration":559,"startTime":"2022-03-25T00:12:28.778-05:00[America/Bogota]","result":"SUCCESS","precondition":false,"level":1,"children":[{"number":4,"description":"Jorge QA executes a GET on the resource /api/unknown0","duration":554,"startTime":"2022-03-25T00:12:28.782-05:00[America/Bogota]","result":"SUCCESS","precondition":false,"level":2,"children":[{"number":5,"description":"GET https://reqres.in/api/unknown0\r","duration":0,"startTime":"2022-03-25T00:12:29.336-05:00[America/Bogota]","result":"SUCCESS","restQuery":{"method":"GET","path":"https://reqres.in/api/unknown0\r","content":"\r","contentType":"application/json","requestHeaders":"header\u003dvalue1\r\n\t\t\t\tAccept\u003d*/*\r\n\t\t\t\tContent-Type\u003dapplication/json; charset\u003dUTF-8\r","requestCookies":"\r","responseHeaders":"Date: Fri, 25 Mar 2022 05:12:29 GMT\r\nContent-Type: application/json; charset\u003dutf-8\r\nTransfer-Encoding: chunked\r\nConnection: keep-alive\r\nX-Powered-By: Express\r\nAccess-Control-Allow-Origin: *\r\nEtag: W/\"2c1-N6Rqerxquq2kgQhL51EiSg4x0R8\"\r\nVia: 1.1 vegur\r\nCache-Control: max-age\u003d14400\r\nCF-Cache-Status: MISS\r\nExpect-CT: max-age\u003d604800, report-uri\u003d\"https://report-uri.cloudflare.com/cdn-cgi/beacon/expect-ct\"\r\nReport-To: {\"endpoints\":[{\"url\":\"https:\\/\\/a.nel.cloudflare.com\\/report\\/v3?s\u003d58iCS1sWz1ZB0itzqPzgX1b4fAobOSr%2BTJWTEbscRmKU3DQoxyuJyEBgO%2Fl7yMWIyfjDZXejU8siihWUoUvc%2FG6vGGglUAAFvDuvNWUNZkDa0DktWDoPs%2B2QOzY%3D\"}],\"group\":\"cf-nel\",\"max_age\":604800}\r\nNEL: {\"success_fraction\":0,\"report_to\":\"cf-nel\",\"max_age\":604800}\r\nVary: Accept-Encoding\r\nServer: cloudflare\r\nCF-RAY: 6f1526dd5e0b8dd0-MIA\r\nContent-Encoding: gzip\r\nalt-svc: h3\u003d\":443\"; ma\u003d86400, h3-29\u003d\":443\"; ma\u003d86400\r","responseCookies":"\r","responseBody":"{\n    \"page\": 1,\n    \"per_page\": 6,\n    \"total\": 12,\n    \"total_pages\": 2,\n    \"data\": [\n        {\n            \"id\": 1,\n            \"name\": \"cerulean\",\n            \"year\": 2000,\n            \"color\": \"#98B2D1\",\n            \"pantone_value\": \"15-4020\"\n        },\n        {\n            \"id\": 2,\n            \"name\": \"fuchsia rose\",\n            \"year\": 2001,\n            \"color\": \"#C74375\",\n            \"pantone_value\": \"17-2031\"\n        },\n        {\n            \"id\": 3,\n            \"name\": \"true red\",\n            \"year\": 2002,\n            \"color\": \"#BF1932\",\n            \"pantone_value\": \"19-1664\"\n        },\n        {\n            \"id\": 4,\n            \"name\": \"aqua sky\",\n            \"year\": 2003,\n            \"color\": \"#7BC4C4\",\n            \"pantone_value\": \"14-4811\"\n        },\n        {\n            \"id\": 5,\n            \"name\": \"tigerlily\",\n            \"year\": 2004,\n            \"color\": \"#E2583E\",\n            \"pantone_value\": \"17-1456\"\n        },\n        {\n            \"id\": 6,\n            \"name\": \"blue turquoise\",\n            \"year\": 2005,\n            \"color\": \"#53B0AE\",\n            \"pantone_value\": \"15-5217\"\n        }\n    ],\n    \"support\": {\n        \"url\": \"https://reqres.in/#support-heading\",\n        \"text\": \"To keep ReqRes free, contributions towards server costs are appreciated!\"\n    }\n}","statusCode":200},"precondition":false,"level":3}]}]}]},{"number":6,"description":"Then no podra ver el nombre del color consultado","duration":7,"startTime":"2022-03-25T00:12:29.342-05:00[America/Bogota]","result":"SUCCESS","precondition":false,"level":0,"children":[{"number":7,"description":"Then El codigo de respuesta es \u003d should be (200)","duration":1,"startTime":"2022-03-25T00:12:29.346-05:00[America/Bogota]","result":"SUCCESS","precondition":false,"level":1}]}],"userStory":{"id":"lista-de-colores","storyName":"Lista de colores","path":"file:///E:/Sofka%20University/Introduccion%20a%20la%20Automatizacion%20de%20Pruebas%20de%20software/Rest_SerenityBDD_Screenplay/src/test/resources/features/listResource.feature","narrative":"  yo como usuario del servicio\n  quiero poder consultar el servicio\n  para visualizar la lista de colores","type":"feature"},"featureTag":{"name":"Features/Lista de colores","type":"feature","displayName":"Features/Lista de colores"},"title":"Consulta fallida","tags":[{"name":"Lista de colores","type":"feature","displayName":"Lista de colores"}],"startTime":"2022-03-25T00:12:28.765-05:00[America/Bogota]","duration":586,"projectKey":"","isManualTestingUpToDate":false,"manual":false,"testSource":"Cucumber","actors":[{"name":"Jorge QA","can":["call an API at https://reqres.in"]}],"result":"SUCCESS"}