{"name":"GetUserFail","id":"runner.TestInitial:GetUserFail","testCaseName":"runner.TestInitial","testSteps":[{"number":1,"description":"Jorge QA executes a GET on the resource /users?page\u003d2","duration":3420,"startTime":"2022-03-23T14:06:25.087-05:00[America/Bogota]","result":"SUCCESS","precondition":false,"level":0,"children":[{"number":2,"description":"GET https://reqres.in/api/users?page\u003d2\r","duration":3,"startTime":"2022-03-23T14:06:28.500-05:00[America/Bogota]","result":"SUCCESS","restQuery":{"method":"GET","path":"https://reqres.in/api/users?page\u003d2\r","content":"\r","contentType":"null","requestHeaders":"Accept\u003d*/*\r","requestCookies":"\r","responseHeaders":"Date: Wed, 23 Mar 2022 22:17:43 GMT\r\nContent-Type: application/json; charset\u003dutf-8\r\nTransfer-Encoding: chunked\r\nConnection: keep-alive\r\nX-Powered-By: Express\r\nAccess-Control-Allow-Origin: *\r\nEtag: W/\"406-ut0vzoCuidvyMf8arZpMpJ6ZRDw\"\r\nVia: 1.1 vegur\r\nCache-Control: max-age\u003d14400\r\nCF-Cache-Status: HIT\r\nAge: 1856\r\nExpect-CT: max-age\u003d604800, report-uri\u003d\"https://report-uri.cloudflare.com/cdn-cgi/beacon/expect-ct\"\r\nReport-To: {\"endpoints\":[{\"url\":\"https:\\/\\/a.nel.cloudflare.com\\/report\\/v3?s\u003dFywxt6RIGMMSMZqBfjKx2D5Ub9cOk1zjGTWlVquQLi00nbe8Nk%2BO55UlTtD9igbZNPA9%2F6ER00EhwmQEFoUFW9HeD0vaeZqXpZcOksPcF2YyHnJBuHJq7DJprDw%3D\"}],\"group\":\"cf-nel\",\"max_age\":604800}\r\nNEL: {\"success_fraction\":0,\"report_to\":\"cf-nel\",\"max_age\":604800}\r\nVary: Accept-Encoding\r\nServer: cloudflare\r\nCF-RAY: 6f0a89edeac02239-MIA\r\nContent-Encoding: gzip\r\nalt-svc: h3\u003d\":443\"; ma\u003d86400, h3-29\u003d\":443\"; ma\u003d86400\r","responseCookies":"\r","responseBody":"{\n    \"page\": 2,\n    \"per_page\": 6,\n    \"total\": 12,\n    \"total_pages\": 2,\n    \"data\": [\n        {\n            \"id\": 7,\n            \"email\": \"michael.lawson@reqres.in\",\n            \"first_name\": \"Michael\",\n            \"last_name\": \"Lawson\",\n            \"avatar\": \"https://reqres.in/img/faces/7-image.jpg\"\n        },\n        {\n            \"id\": 8,\n            \"email\": \"lindsay.ferguson@reqres.in\",\n            \"first_name\": \"Lindsay\",\n            \"last_name\": \"Ferguson\",\n            \"avatar\": \"https://reqres.in/img/faces/8-image.jpg\"\n        },\n        {\n            \"id\": 9,\n            \"email\": \"tobias.funke@reqres.in\",\n            \"first_name\": \"Tobias\",\n            \"last_name\": \"Funke\",\n            \"avatar\": \"https://reqres.in/img/faces/9-image.jpg\"\n        },\n        {\n            \"id\": 10,\n            \"email\": \"byron.fields@reqres.in\",\n            \"first_name\": \"Byron\",\n            \"last_name\": \"Fields\",\n            \"avatar\": \"https://reqres.in/img/faces/10-image.jpg\"\n        },\n        {\n            \"id\": 11,\n            \"email\": \"george.edwards@reqres.in\",\n            \"first_name\": \"George\",\n            \"last_name\": \"Edwards\",\n            \"avatar\": \"https://reqres.in/img/faces/11-image.jpg\"\n        },\n        {\n            \"id\": 12,\n            \"email\": \"rachel.howell@reqres.in\",\n            \"first_name\": \"Rachel\",\n            \"last_name\": \"Howell\",\n            \"avatar\": \"https://reqres.in/img/faces/12-image.jpg\"\n        }\n    ],\n    \"support\": {\n        \"url\": \"https://reqres.in/#support-heading\",\n        \"text\": \"To keep ReqRes free, contributions towards server costs are appreciated!\"\n    }\n}","statusCode":200},"precondition":false,"level":1}]}],"userStory":{"id":"runner.TestInitial","storyName":"Test initial","storyClassName":"runner.TestInitial","path":"runner","type":"story"},"featureTag":{"name":"Runner/Test initial","type":"story","displayName":"Runner/Test initial"},"title":"Get user fail","tags":[{"name":"Runner/Test initial","type":"story","displayName":"Runner/Test initial"}],"startTime":"2022-03-23T14:06:24.581-05:00[America/Bogota]","duration":4039,"testFailureCause":{"errorType":"org.opentest4j.AssertionFailedError","message":"\r\nExpecting:\r\n \u003c200\u003e\r\nto be equal to:\r\n \u003c400\u003e\r\nbut was not.","stackTrace":[{"declaringClass":"runner.TestInitial","methodName":"GetUserFail","fileName":"TestInitial.java","lineNumber":38}]},"testFailureClassname":"org.opentest4j.AssertionFailedError","testFailureMessage":"\r\nExpecting:\r\n \u003c200\u003e\r\nto be equal to:\r\n \u003c400\u003e\r\nbut was not.","testFailureSummary":"FAILURE;org.opentest4j.AssertionFailedError;\r\nExpecting:\r\n \u003c200\u003e\r\nto be equal to:\r\n \u003c400\u003e\r\nbut was not.;TestInitial.java","projectKey":"","annotatedResult":"FAILURE","isManualTestingUpToDate":false,"manual":false,"testSource":"JUnit","actors":[{"name":"Jorge QA","can":["call an API at https://reqres.in/api"]}],"order":0,"result":"FAILURE"}