<?xml version="1.0" encoding="UTF-8"?><testsuite errors="1" failures="0" name="runner.TestInitial" skipped="0" tests="1" time="4.53" timestamp="2022-03-23 08:59:15"><testcase classname="runner.TestInitial" name="Get list"><error message="Unrecognized field &quot;per_page&quot; (class ListResource), not marked as ignorable (6 known properties: &quot;totalPages&quot;, &quot;total&quot;, &quot;data&quot;, &quot;perPage&quot;, &quot;page&quot;, &quot;support&quot;])&#10; at [Source: (String)&quot;{&quot;page&quot;:1,&quot;per_page&quot;:6,&quot;total&quot;:12,&quot;total_pages&quot;:2,&quot;data&quot;:[{&quot;id&quot;:1,&quot;name&quot;:&quot;cerulean&quot;,&quot;year&quot;:2000,&quot;color&quot;:&quot;#98B2D1&quot;,&quot;pantone_value&quot;:&quot;15-4020&quot;},{&quot;id&quot;:2,&quot;name&quot;:&quot;fuchsia rose&quot;,&quot;year&quot;:2001,&quot;color&quot;:&quot;#C74375&quot;,&quot;pantone_value&quot;:&quot;17-2031&quot;},{&quot;id&quot;:3,&quot;name&quot;:&quot;true red&quot;,&quot;year&quot;:2002,&quot;color&quot;:&quot;#BF1932&quot;,&quot;pantone_value&quot;:&quot;19-1664&quot;},{&quot;id&quot;:4,&quot;name&quot;:&quot;aqua sky&quot;,&quot;year&quot;:2003,&quot;color&quot;:&quot;#7BC4C4&quot;,&quot;pantone_value&quot;:&quot;14-4811&quot;},{&quot;id&quot;:5,&quot;name&quot;:&quot;tigerlily&quot;,&quot;year&quot;:2004,&quot;color&quot;:&quot;#E2583E&quot;,&quot;pantone_value&quot;:&quot;17-1456&quot;},{&quot;id&quot;:6,&quot;name&quot;:&quot;blue t&quot;[truncated 205 chars]; line: 1, column: 23] (through reference chain: ListResource[&quot;per_page&quot;])" type="com.fasterxml.jackson.databind.exc.UnrecognizedPropertyException">Unrecognized field "per_page" (class ListResource), not marked as ignorable (6 known properties: "totalPages", "total", "data", "perPage", "page", "support"])
 at [Source: (String)"{"page":1,"per_page":6,"total":12,"total_pages":2,"data":[{"id":1,"name":"cerulean","year":2000,"color":"#98B2D1","pantone_value":"15-4020"},{"id":2,"name":"fuchsia rose","year":2001,"color":"#C74375","pantone_value":"17-2031"},{"id":3,"name":"true red","year":2002,"color":"#BF1932","pantone_value":"19-1664"},{"id":4,"name":"aqua sky","year":2003,"color":"#7BC4C4","pantone_value":"14-4811"},{"id":5,"name":"tigerlily","year":2004,"color":"#E2583E","pantone_value":"17-1456"},{"id":6,"name":"blue t"[truncated 205 chars]; line: 1, column: 23] (through reference chain: ListResource["per_page"])</error><system-err>Unrecognized field "per_page" (class ListResource), not marked as ignorable (6 known properties: "totalPages", "total", "data", "perPage", "page", "support"])
 at [Source: (String)"{"page":1,"per_page":6,"total":12,"total_pages":2,"data":[{"id":1,"name":"cerulean","year":2000,"color":"#98B2D1","pantone_value":"15-4020"},{"id":2,"name":"fuchsia rose","year":2001,"color":"#C74375","pantone_value":"17-2031"},{"id":3,"name":"true red","year":2002,"color":"#BF1932","pantone_value":"19-1664"},{"id":4,"name":"aqua sky","year":2003,"color":"#7BC4C4","pantone_value":"14-4811"},{"id":5,"name":"tigerlily","year":2004,"color":"#E2583E","pantone_value":"17-1456"},{"id":6,"name":"blue t"[truncated 205 chars]; line: 1, column: 23] (through reference chain: ListResource["per_page"])&#13;
com.fasterxml.jackson.databind.exc.UnrecognizedPropertyException.from(UnrecognizedPropertyException.java:61)&#13;
com.fasterxml.jackson.databind.DeserializationContext.handleUnknownProperty(DeserializationContext.java:855)&#13;
com.fasterxml.jackson.databind.deser.std.StdDeserializer.handleUnknownProperty(StdDeserializer.java:1212)&#13;
com.fasterxml.jackson.databind.deser.BeanDeserializerBase.handleUnknownProperty(BeanDeserializerBase.java:1604)&#13;
com.fasterxml.jackson.databind.deser.BeanDeserializerBase.handleUnknownVanilla(BeanDeserializerBase.java:1582)&#13;
com.fasterxml.jackson.databind.deser.BeanDeserializer.vanillaDeserialize(BeanDeserializer.java:299)&#13;
com.fasterxml.jackson.databind.deser.BeanDeserializer.deserialize(BeanDeserializer.java:156)&#13;
com.fasterxml.jackson.databind.ObjectMapper._readMapAndClose(ObjectMapper.java:4526)&#13;
com.fasterxml.jackson.databind.ObjectMapper.readValue(ObjectMapper.java:3468)&#13;
io.restassured.internal.path.json.mapping.JsonPathJackson2ObjectDeserializer.deserialize(JsonPathJackson2ObjectDeserializer.groovy:47)&#13;
io.restassured.internal.mapping.Jackson2Mapper.deserialize(Jackson2Mapper.groovy:58)&#13;
io.restassured.internal.mapping.ObjectMapping.parseWithJackson2(ObjectMapping.groovy:204)&#13;
io.restassured.internal.mapping.ObjectMapping.deserialize(ObjectMapping.groovy:57)&#13;
io.restassured.internal.RestAssuredResponseOptionsGroovyImpl.as(RestAssuredResponseOptionsGroovyImpl.groovy:220)&#13;
io.restassured.internal.RestAssuredResponseOptionsImpl.as(RestAssuredResponseOptionsImpl.java:166)&#13;
net.serenitybdd.rest.decorators.ResponseDecorated.as(ResponseDecorated.java:63)&#13;
questions.GetListResources.answeredBy(GetListResources.java:11)&#13;
runner.TestInitial.GetList(TestInitial.java:33)&#13;
</system-err></testcase></testsuite>